<svg id="icn-grid" xmlns="http://www.w3.org/2000/svg" viewBox="0 0 48 48" width="32" height="32">
	<title>grid</title>
	<g>
	    <path d="M18.9004,21 L5.0994,21 C3.9404,21 3.0004,20.06 3.0004,18.9 L3.0004,5.1 C3.0004,3.94 3.9404,3 5.0994,3 L18.9004,3 C20.0604,3 21.0004,3.94 21.0004,5.1 L21.0004,18.9 C21.0004,20.06 20.0604,21 18.9004,21 Z M42.9004,21 L29.0994,21 C27.9404,21 27.0004,20.06 27.0004,18.9 L27.0004,5.1 C27.0004,3.94 27.9404,3 29.0994,3 L42.9004,3 C44.0594,3 45.0004,3.94 45.0004,5.1 L45.0004,18.9 C45.0004,20.06 44.0594,21 42.9004,21 Z M18.9004,45 L5.0994,45 C3.9404,45 3.0004,44.06 3.0004,42.9 L3.0004,29.1 C3.0004,27.94 3.9404,27 5.0994,27 L18.9004,27 C20.0604,27 21.0004,27.94 21.0004,29.1 L21.0004,42.9 C21.0004,44.06 20.0604,45 18.9004,45 Z M42.9004,45 L29.0994,45 C27.9404,45 27.0004,44.06 27.0004,42.9 L27.0004,29.1 C27.0004,27.94 27.9404,27 29.0994,27 L42.9004,27 C44.0594,27 45.0004,27.94 45.0004,29.1 L45.0004,42.9 C45.0004,44.06 44.0594,45 42.9004,45 Z"/>
	</g>
</svg>
