<svg id="icn-secure" xmlns="http://www.w3.org/2000/svg" viewBox="0 0 48 48" width="32" height="32">
	<title>secure</title>
	<g>
	    <path d="M39.101,41.832 L39.101,23.879 C39.101,23.26 38.596,22.755 37.977,22.755 L10.024,22.755 C9.405,22.755 8.901,23.26 8.901,23.879 L8.901,41.832 C8.901,42.451 9.405,42.955 10.024,42.955 L37.977,42.955 C38.596,42.955 39.101,42.451 39.101,41.832 Z M19.015,14.503 L19.017,20.855 L29.015,20.855 L29.015,14.457 C29.007,14.312 28.965,13.737 28.88,13.373 C28.504,11.743 27.449,9.009 24.603,9.009 L23.429,9.009 C20.583,9.009 19.528,11.743 19.152,13.372 C19.067,13.738 19.024,14.312 19.015,14.503 Z M14.956,12.461 L14.958,20.855 L17.116,20.855 L17.116,14.457 C17.122,14.325 17.162,13.542 17.301,12.944 C17.705,11.19 19.113,7.109 23.429,7.109 L24.603,7.109 C28.919,7.109 30.327,11.19 30.732,12.945 C30.87,13.542 30.911,14.326 30.914,14.413 L30.915,20.855 L33.082,20.855 L33.082,12.403 C33.069,12.208 32.996,11.443 32.853,10.955 C32.187,8.694 30.284,4.901 25.008,4.901 L23.032,4.901 C17.757,4.901 15.853,8.694 15.187,10.956 C15.044,11.443 14.972,12.207 14.956,12.461 Z M37.977,20.855 C39.647,20.855 41,22.209 41,23.879 L41,41.832 C41,43.502 39.647,44.855 37.977,44.855 L10.024,44.855 C8.354,44.855 7,43.502 7,41.832 L7,23.879 C7,22.209 8.354,20.855 10.024,20.855 L13.058,20.855 L13.058,12.403 C13.067,12.23 13.135,11.202 13.365,10.419 C14.021,8.189 16.277,3 23.032,3 L25.008,3 C31.763,3 34.019,8.189 34.675,10.419 C34.905,11.202 34.974,12.229 34.981,12.344 L34.983,20.855 L37.977,20.855 Z M25.1918,33.3378 L26.1388,29.6608 C26.0228,28.5508 25.1018,27.7048 24.0008,27.7048 C22.8878,27.7048 21.9698,28.5548 21.8608,29.6398 L22.8648,33.3108 L22.9318,33.5568 L22.9318,33.8118 L22.9318,37.9548 L25.1318,37.9548 L25.1318,33.8118 L25.1318,33.5698 L25.1918,33.3378 Z M24.0008,25.8058 C26.2158,25.8058 28.0158,27.5848 28.0498,29.7918 L28.0498,29.8558 L28.0368,29.9108 L27.0328,33.8118 L27.0328,39.0398 C27.0328,39.4898 26.6678,39.8558 26.2168,39.8558 L21.8478,39.8558 C21.3978,39.8558 21.0318,39.4898 21.0318,39.0398 L21.0318,33.8118 L19.9508,29.8558 C19.9508,27.6188 21.7638,25.8058 24.0008,25.8058 Z"/>
	</g>
</svg>
